01,INFIMPGA,061000052,230915,0237,81,110,1,2/                                                                 
02,061000052,061000052,1,230914,0237,,2/                                                                      
03,003359875500,USD/                                                                                          
88,015,000000000000000,,/                                                                                     
88,040,000000000000000,,/                                                                                     
88,045,000000000000000,,/                                                                                     
88,072,000000000000000,,/                                                                                     
88,074,000000000000000,,/                                                                                     
88,400,000000000000000,0000000,/                                                                              
88,100,000000000000000,0000000,S,000000000000000,000000000000000,000000000000000/                             
49,000000000000000,000009/                                                                                    
98,000000000000000,000001,000011/                                                                             
02,111000025,111000025,1,230914,0246,,2/                                                                      
03,488032919082,USD/                                                                                          
88,015,000001490106124,,/                                                                                     
88,040,000001490106124,,/                                                                                     
88,045,000001490106124,,/                                                                                     
88,072,000000000000000,,/                                                                                     
88,074,000000000000000,,/                                                                                     
88,400,000000277103710,0000010,/                                                                              
88,100,000000001599771,0000002,S,000000000000000,000000000000000,000000000000000/                             
16,739,000000001509771,Z,943009140000433,003299838492/                                                        
88,GA CTRL DIS 003299838492 CR                                                                                
16,739,000000000090000,Z,943009140000439,003359811018/                                                        
88,GA CTRL DIS 003359811018 CR                                                                                
16,575,000000002338980,Z,081309142000000,488038391455/                                                        
88,ZBA TRANSFER TO     488038391455                                                                           
16,575,000000187940259,Z,081309142000000,488038391471/                                                        
88,ZBA TRANSFER TO     488038391471                                                                           
16,738,000000000248974,Z,943009140000436,003359810705/                                                        
88,GA CTRL DIS 003359810705 DR                                                                                
16,738,000000005038881,Z,943009140000438,003359810713/                                                        
88,GA CTRL DIS 003359810713 DR                                                                                
16,738,000000000361137,Z,943009140000442,003359875906/                                                        
88,GA CTRL DIS 003359875906 DR                                                                                
16,738,000000073548355,Z,943009140000444,003359876920/                                                        
88,GA CTRL DIS 003359876920 DR                                                                                
16,738,000000000286365,Z,943009140000446,003359878041/                                                        
88,GA CTRL DIS 003359878041 DR                                                                                
16,738,000000005346244,Z,943009140000448,003359878058/                                                        
88,GA CTRL DIS 003359878058 DR                                                                                
16,738,000000001983969,Z,943009140000450,003359878066/                                                        
88,GA CTRL DIS 003359878066 DR                                                                                
16,738,000000000010546,Z,943009140000452,003359883793/                                                        
88,GA CTRL DIS 003359883793 DR                                                                                
49,000005027725334,000033/                                                                                    
03,488038391455,USD/                                                                                          
88,015,000000000000000,,/                                                                                     
88,040,000000000000000,,/                                                                                     
88,045,000000000000000,,/                                                                                     
88,072,000000000000000,,/                                                                                     
88,074,000000000000000,,/                                                                                     
88,400,000000002338980,0000002,/                                                                              
88,100,000000002338980,0000001,S,000000000000000,000000000000000,000000000000000/                             
16,275,000000002338980,Z,081309142000000,488032919082/                                                        
88,ZBA TRANSFER FROM   488032919082                                                                           
16,455,000000000079000,Z,906656009728661,000000000000/                                                        
88,OHIO BWC         DES:PAYMENT    ID:C1662065-0                                                              
88, INDN:QUANEX BUILDING PRODU   CO ID:3311334187 CCD                                                         
16,508,000000002259980,Z,903709130306004,000000000000/                                                        
88,WIRE TYPE:INTL OUT DATE:230914 TIME:0900 ET                                                                
88,TRN:2023091300306004 SERVICE REF:739018                                                                    
88,BNF:CONG TY TNHH THUONG MAI-DA ID:072 137 0601778                                                          
88,BNF BK:JOINT STOCK COMMERCIAL ID:BFTVVNVX001                                                               
88,PMT DET:239DA4124JO91357Ref. Quanex Custom Compone                                                         
49,000000009355920,000020/                                                                                    
03,488038391471,USD/                                                                                          
88,015,000000000000000,,/                                                                                     
88,040,000000000000000,,/                                                                                     
88,045,000000000000000,,/                                                                                     
88,072,000000000000000,,/                                                                                     
88,074,000000000000000,,/                                                                                     
88,400,000000187940259,0000002,/                                                                              
88,100,000000187940259,0000001,S,000000000000000,000000000000000,000000000000000/                             
16,275,000000187940259,Z,081309142000000,488032919082/                                                        
88,ZBA TRANSFER FROM   488032919082                                                                           
16,455,000000004081765,Z,902556005359901,000000000000/                                                        
88,KRONOS SAASHR IN DES:55F2503E4D ID:3B00RK44EJFI35J                                                         
88, INDN:QUANEX BUILDING PRODUC  CO ID:9999922673 CCD                                                         
16,491,000000183858494,Z,903709140242369,000000000000/                                                        
88,WIRE TYPE:BOOK OUT DATE:230914 TIME:0839 ET                                                                
88,TRN:2023091400242369 RELATED REF:1601B8XI5ORTRXG                                                           
88,BNF:KRONOS SAASHR  INC. ID:004451422660                                                                    
49,000000751761036,000018/                                                                                    
98,000005788842290,000003,000073/                                                                             
99,000005788842290,000002,000086/                                                                             
